{
  "data": [
    {
      "id": "name",
      "text": "Jessica Parker",
      "label": "Full Name"
    },
    {
      "id": "website",
      "text": "www.seller.com",
      "icon": "globe-outline",
      "label": "Website"
    },
    {
      "id": "phone",
      "text": "(949) 325 - 68594",
      "icon": "call-outline",
      "label": "Phone"
    },
    {
      "id": "address",
      "text": "Newport Beach, CA",
      "icon": "home-outline",
      "label": "Address"
    }
  ]
}
